{
"trnList": [
            {
                "username": "Jarry",
                "description": "log in",
                "created_at": "2020/01/04 9:00"
            },
            {
                 "username": "Bob",
                 "description": "receive RM20 from [Alice]",
                 "created_at": "2019/12/03 11:00"
            },
            {
                 "username": "Alice",
                 "description": "pay RM20 to [Bob]",
                 "created_at": "2019/12/03 11:00"
            }
    ]
}